^C:\USERS\TATYANA\SOURCE\REPOS\UE4_LESSON15\UE4_LESSON15_EVEN_AND_ODD\X64\RELEASE\UE4_LESSON15_EVEN_AND_ODD.OBJ
C:\USERS\TATYANA\SOURCE\REPOS\UE4_LESSON15\UE4_LESSON15\X64\RELEASE\UE4_LESSON15_EVEN_AND_ODD.EXE
C:\USERS\TATYANA\SOURCE\REPOS\UE4_LESSON15\UE4_LESSON15\X64\RELEASE\UE4_LESSON15_EVEN_AND_ODD.PDB
